<?xml version="1.0" encoding="UTF-8" standalone="no"?>
<!-- Created with Inkscape (http://www.inkscape.org/) -->

<svg
   width="48"
   height="48"
   viewBox="0 0 12.7 12.7"
   version="1.1"
   id="svg6746"
   inkscape:version="1.2.2 (b0a8486541, 2022-12-01)"
   sodipodi:docname="logo-elive.svg"
   xmlns:inkscape="http://www.inkscape.org/namespaces/inkscape"
   xmlns:sodipodi="http://sodipodi.sourceforge.net/DTD/sodipodi-0.dtd"
   xmlns:xlink="http://www.w3.org/1999/xlink"
   xmlns="http://www.w3.org/2000/svg"
   xmlns:svg="http://www.w3.org/2000/svg">
  <sodipodi:namedview
     id="namedview6748"
     pagecolor="#ffffff"
     bordercolor="#666666"
     borderopacity="1.0"
     inkscape:showpageshadow="2"
     inkscape:pageopacity="0.0"
     inkscape:pagecheckerboard="0"
     inkscape:deskcolor="#d1d1d1"
     inkscape:document-units="mm"
     showgrid="false"
     inkscape:zoom="45.782716"
     inkscape:cx="39.05404"
     inkscape:cy="31.75871"
     inkscape:window-width="2560"
     inkscape:window-height="1440"
     inkscape:window-x="0"
     inkscape:window-y="0"
     inkscape:window-maximized="0"
     inkscape:current-layer="layer1" />
  <defs
     id="defs6743">
    <linearGradient
       inkscape:collect="always"
       id="linearGradient3014">
      <stop
         style="stop-color:#00ffff;stop-opacity:1;"
         offset="0"
         id="stop3010" />
      <stop
         style="stop-color:#0000ff;stop-opacity:1"
         offset="1"
         id="stop3012" />
    </linearGradient>
    <linearGradient
       inkscape:collect="always"
       xlink:href="#linearGradient3014"
       id="linearGradient3016"
       x1="2.973743"
       y1="1.9738966"
       x2="12.624385"
       y2="12.210096"
       gradientUnits="userSpaceOnUse" />
    <linearGradient
       inkscape:collect="always"
       xlink:href="#linearGradient3014"
       id="linearGradient871"
       gradientUnits="userSpaceOnUse"
       x1="10.442693"
       y1="0.79158098"
       x2="5.5906515"
       y2="14.629041" />
    <linearGradient
       inkscape:collect="always"
       xlink:href="#linearGradient3014"
       id="linearGradient873"
       gradientUnits="userSpaceOnUse"
       x1="2.973743"
       y1="1.9738966"
       x2="12.624385"
       y2="12.210096" />
  </defs>
  <g
     inkscape:label="Layer 1"
     inkscape:groupmode="layer"
     id="layer1">
    <g
       id="g2439"
       transform="matrix(1.0129233,0,0,0.98367787,-8.3306884e-4,0.04166596)">
      <g
         id="g6730-7"
         transform="matrix(0.84258175,0,0,0.82894257,-0.16922228,-0.00967278)"
         style="fill:#0000ff;fill-opacity:1">
        <path
           id="path1800-5"
           style="color:#000000;fill:#0000ff;fill-opacity:1;-inkscape-stroke:none"
           d="m 7.7089844,0.06640625 c -4.1063172,0 -7.43164065,3.42912395 -7.43164065,7.61523435 0,4.1861104 3.32532345,7.6132814 7.43164065,7.6132814 2.5169156,0 4.7378426,-1.289308 6.0820316,-3.25 l -1.363504,-0.685773 c -1.095306,1.474545 -2.7773147,2.49632 -4.7185276,2.49632 -3.3073241,0 -5.9921875,-2.745034 -5.9921875,-6.1738284 0,-3.4287943 2.6848634,-6.1757812 5.9921875,-6.1757812 3.1198636,0 5.4581556,2.4910833 5.7390116,5.6463635 l 1.047619,0.015062 c 4.54e-4,-0.034555 0.419225,0.5957698 0.419225,0.5611088 0,-4.1861104 -3.099491,-7.66198845 -7.2058086,-7.66198845 z"
           sodipodi:nodetypes="sssccsssccsss" />
        <rect
           style="fill:#0000ff;fill-opacity:1;stroke:none;stroke-width:1.92069;stroke-opacity:1"
           id="rect2085-3"
           width="8.2776175"
           height="2.4303012"
           x="5.6569571"
           y="3.3122561"
           ry="0"
           transform="matrix(0.9411908,0.33787554,-0.27787015,0.96061864,0,0)" />
      </g>
      <g
         id="g6730"
         transform="matrix(0.82588565,0,0,0.82585276,-0.11921198,0.11431565)"
         style="fill:url(#linearGradient3016);fill-opacity:1">
        <path
           id="path1800"
           style="color:#000000;fill:url(#linearGradient871);fill-opacity:1;-inkscape-stroke:none"
           d="m 7.7089844,0.06640625 c -4.1063172,0 -7.43164065,3.42912395 -7.43164065,7.61523435 0,4.1861104 3.32532345,7.6132814 7.43164065,7.6132814 2.5169156,0 4.8167096,-1.232614 6.1608986,-3.193306 l -1.39918,-0.668022 c -1.095306,1.474545 -2.8205057,2.421875 -4.7617186,2.421875 -3.3073241,0 -5.9921875,-2.745034 -5.9921875,-6.1738284 0,-3.4287943 2.6848634,-6.1757812 5.9921875,-6.1757812 3.1198636,0 5.6839876,2.4443292 5.9648436,5.5996094 l 1.464844,0.6796874 c 4.54e-4,-0.034555 0.002,-0.068855 0.002,-0.1035156 0,-4.1861104 -3.325323,-7.61523435 -7.4316406,-7.61523435 z"
           sodipodi:nodetypes="sssccsssccsss" />
        <rect
           style="fill:url(#linearGradient873);fill-opacity:1;stroke:none;stroke-width:1.92069;stroke-opacity:1"
           id="rect2085"
           width="8.3940887"
           height="2.3452697"
           x="5.6569571"
           y="3.3122561"
           ry="0"
           transform="matrix(0.9411908,0.33787554,-0.27787015,0.96061864,0,0)" />
      </g>
    </g>
  </g>
</svg>
