<?xml version="1.0" encoding="UTF-8" standalone="no"?>
<svg
   width="128"
   height="128"
   viewBox="0 0 128 128"
   fill="none"
   version="1.1"
   id="svg23"
   sodipodi:docname="elive-center.svg"
   inkscape:version="1.2.2 (b0a8486541, 2022-12-01)"
   xmlns:inkscape="http://www.inkscape.org/namespaces/inkscape"
   xmlns:sodipodi="http://sodipodi.sourceforge.net/DTD/sodipodi-0.dtd"
   xmlns:xlink="http://www.w3.org/1999/xlink"
   xmlns="http://www.w3.org/2000/svg"
   xmlns:svg="http://www.w3.org/2000/svg">
  <sodipodi:namedview
     id="namedview25"
     pagecolor="#ffffff"
     bordercolor="#666666"
     borderopacity="1.0"
     inkscape:showpageshadow="2"
     inkscape:pageopacity="0.0"
     inkscape:pagecheckerboard="0"
     inkscape:deskcolor="#d1d1d1"
     showgrid="false"
     inkscape:zoom="8.0234375"
     inkscape:cx="63.813048"
     inkscape:cy="63.813048"
     inkscape:window-width="2550"
     inkscape:window-height="1416"
     inkscape:window-x="0"
     inkscape:window-y="0"
     inkscape:window-maximized="0"
     inkscape:current-layer="svg23" />
  <defs
     id="defs21">
    <linearGradient
       id="paint0_linear_619_23"
       x1="72.9898"
       y1="36.6734"
       x2="6.63085"
       y2="127.695"
       gradientUnits="userSpaceOnUse">
      <stop
         stop-color="#43E97B"
         id="stop6" />
      <stop
         offset="0.978261"
         stop-color="#38F9D7"
         id="stop8" />
    </linearGradient>
    <linearGradient
       id="paint1_linear_619_23"
       x1="72.9898"
       y1="36.6734"
       x2="6.63085"
       y2="127.695"
       gradientUnits="userSpaceOnUse">
      <stop
         stop-color="#43E97B"
         id="stop11" />
      <stop
         offset="0.978261"
         stop-color="#38F9D7"
         id="stop13" />
    </linearGradient>
    <linearGradient
       id="paint2_linear_619_23"
       x1="64"
       y1="88.1237"
       x2="64"
       y2="40"
       gradientUnits="userSpaceOnUse">
      <stop
         stop-color="#02AA93"
         id="stop16" />
      <stop
         offset="1"
         stop-color="#67FF80"
         id="stop18" />
    </linearGradient>
    <linearGradient
       inkscape:collect="always"
       xlink:href="#linearGradient3014"
       id="linearGradient3016"
       x1="2.973743"
       y1="1.9738966"
       x2="12.624385"
       y2="12.210096"
       gradientUnits="userSpaceOnUse" />
    <linearGradient
       inkscape:collect="always"
       id="linearGradient3014">
      <stop
         style="stop-color:#00ffff;stop-opacity:1;"
         offset="0"
         id="stop3010" />
      <stop
         style="stop-color:#0000ff;stop-opacity:1"
         offset="1"
         id="stop3012" />
    </linearGradient>
    <linearGradient
       inkscape:collect="always"
       xlink:href="#linearGradient3014"
       id="linearGradient871"
       gradientUnits="userSpaceOnUse"
       x1="10.442693"
       y1="0.79158098"
       x2="5.5906515"
       y2="14.629041" />
    <linearGradient
       inkscape:collect="always"
       xlink:href="#linearGradient3014"
       id="linearGradient480"
       gradientUnits="userSpaceOnUse"
       x1="2.973743"
       y1="1.9738966"
       x2="12.624385"
       y2="12.210096" />
  </defs>
  <g
     id="g733">
    <path
       d="M45.1684 11.2211C57.8587 6.69736 72.1774 6.93647 84.6867 11.9513C96.1559 16.488 106.01 24.9538 112.251 35.5845C118.939 46.8162 121.44 60.4583 119.197 73.3315C117.498 83.4194 112.878 92.9644 106.139 100.648C97.2026 110.95 84.4153 117.89 70.8591 119.544C60.7404 120.889 50.2665 119.221 40.9749 115.027C38.4873 113.929 38.1189 110.135 40.3351 108.578C41.5694 107.57 43.301 107.615 44.6774 108.287C56.0431 113.25 69.3279 113.593 80.9327 109.224C91.1934 105.405 100.046 97.947 105.59 88.5054C110.681 79.9168 112.995 69.7255 112.116 59.7799C111.224 48.8067 106.372 38.2211 98.6694 30.3627C91.9883 23.4286 83.1683 18.6141 73.741 16.6689C62.7307 14.336 50.9191 16.055 41.0395 21.4317C30.3198 27.2028 21.907 37.1548 18.1271 48.7419C13.3004 62.9981 15.633 79.4838 24.4141 91.7366C26.6692 95.013 29.4282 97.8952 32.3812 100.551C33.8932 101.779 34.2937 104.228 32.9174 105.715C29.4541 109.347 25.8162 112.824 22.172 116.281C19.3224 119.028 14.373 118.944 11.6333 116.093C8.70625 113.347 8.67394 108.313 11.4201 105.431C13.9659 102.774 16.6991 100.299 19.2514 97.6432C11.9176 87.9948 7.89856 75.8842 8.00195 63.7671C8.00195 52.3028 11.6333 40.8708 18.2951 31.5454C24.8858 22.2201 34.4099 15.021 45.1684 11.2211Z"
       fill="url(#paint0_linear_619_23)"
       stroke="url(#paint1_linear_619_23)"
       stroke-width="4"
       id="path2" />
    <g
       id="g2439"
       transform="matrix(6.9190239,0,0,6.724077,20.231897,20.539358)">
      <g
         id="g6730-7"
         transform="matrix(0.84258175,0,0,0.82894257,-0.16922228,-0.00967278)"
         style="fill:#0000ff;fill-opacity:1">
        <path
           id="path1800-5"
           style="color:#000000;fill:#0000ff;fill-opacity:1;-inkscape-stroke:none"
           d="m 7.7089844,0.06640625 c -4.1063172,0 -7.43164065,3.42912395 -7.43164065,7.61523435 0,4.1861104 3.32532345,7.6132814 7.43164065,7.6132814 2.5169156,0 4.7378426,-1.289308 6.0820316,-3.25 l -1.363504,-0.685773 c -1.095306,1.474545 -2.7773147,2.49632 -4.7185276,2.49632 -3.3073241,0 -5.9921875,-2.745034 -5.9921875,-6.1738284 0,-3.4287943 2.6848634,-6.1757812 5.9921875,-6.1757812 3.1198636,0 5.4581556,2.4910833 5.7390116,5.6463635 l 1.047619,0.015062 c 4.54e-4,-0.034555 0.419225,0.5957698 0.419225,0.5611088 0,-4.1861104 -3.099491,-7.66198845 -7.2058086,-7.66198845 z"
           sodipodi:nodetypes="sssccsssccsss" />
        <rect
           style="fill:#0000ff;fill-opacity:1;stroke:none;stroke-width:1.92069;stroke-opacity:1"
           id="rect2085-3"
           width="8.2776175"
           height="2.4303012"
           x="5.6569571"
           y="3.3122561"
           ry="0"
           transform="matrix(0.9411908,0.33787554,-0.27787015,0.96061864,0,0)" />
      </g>
      <g
         id="g6730"
         transform="matrix(0.82588565,0,0,0.82585276,-0.11921198,0.11431565)"
         style="fill:url(#linearGradient3016);fill-opacity:1">
        <path
           id="path1800"
           style="color:#000000;fill:url(#linearGradient871);fill-opacity:1;-inkscape-stroke:none"
           d="m 7.7089844,0.06640625 c -4.1063172,0 -7.43164065,3.42912395 -7.43164065,7.61523435 0,4.1861104 3.32532345,7.6132814 7.43164065,7.6132814 2.5169156,0 4.8167096,-1.232614 6.1608986,-3.193306 l -1.39918,-0.668022 c -1.095306,1.474545 -2.8205057,2.421875 -4.7617186,2.421875 -3.3073241,0 -5.9921875,-2.745034 -5.9921875,-6.1738284 0,-3.4287943 2.6848634,-6.1757812 5.9921875,-6.1757812 3.1198636,0 5.6839876,2.4443292 5.9648436,5.5996094 l 1.464844,0.6796874 c 4.54e-4,-0.034555 0.002,-0.068855 0.002,-0.1035156 0,-4.1861104 -3.325323,-7.61523435 -7.4316406,-7.61523435 z"
           sodipodi:nodetypes="sssccsssccsss" />
        <rect
           style="fill:url(#linearGradient480);fill-opacity:1;stroke:none;stroke-width:1.92069;stroke-opacity:1"
           id="rect2085"
           width="8.3940887"
           height="2.3452697"
           x="5.6569571"
           y="3.3122561"
           ry="0"
           transform="matrix(0.9411908,0.33787554,-0.27787015,0.96061864,0,0)" />
      </g>
    </g>
  </g>
</svg>
