<?xml version="1.0" encoding="UTF-8" standalone="no"?>
<!-- Created with Inkscape (http://www.inkscape.org/) -->

<svg
   width="48"
   height="48"
   viewBox="0 0 12.7 12.7"
   version="1.1"
   id="svg6746"
   inkscape:version="1.2.2 (b0a8486541, 2022-12-01)"
   sodipodi:docname="logo-elive.svg"
   xmlns:inkscape="http://www.inkscape.org/namespaces/inkscape"
   xmlns:sodipodi="http://sodipodi.sourceforge.net/DTD/sodipodi-0.dtd"
   xmlns:xlink="http://www.w3.org/1999/xlink"
   xmlns="http://www.w3.org/2000/svg"
   xmlns:svg="http://www.w3.org/2000/svg">
  <sodipodi:namedview
     id="namedview6748"
     pagecolor="#ffffff"
     bordercolor="#666666"
     borderopacity="1.0"
     inkscape:showpageshadow="2"
     inkscape:pageopacity="0.0"
     inkscape:pagecheckerboard="0"
     inkscape:deskcolor="#d1d1d1"
     inkscape:document-units="mm"
     showgrid="false"
     inkscape:zoom="8.0933172"
     inkscape:cx="53.377371"
     inkscape:cy="51.400432"
     inkscape:window-width="2550"
     inkscape:window-height="1416"
     inkscape:window-x="0"
     inkscape:window-y="0"
     inkscape:window-maximized="0"
     inkscape:current-layer="layer1" />
  <defs
     id="defs6743">
    <linearGradient
       inkscape:collect="always"
       id="linearGradient3014">
      <stop
         style="stop-color:#09bac3;stop-opacity:1;"
         offset="0"
         id="stop3010" />
      <stop
         style="stop-color:#b700ff;stop-opacity:1;"
         offset="1"
         id="stop3012" />
    </linearGradient>
    <linearGradient
       inkscape:collect="always"
       xlink:href="#linearGradient3014"
       id="linearGradient1735"
       x1="9.5597601"
       y1="0.49501425"
       x2="5.2970576"
       y2="14.798989"
       gradientUnits="userSpaceOnUse" />
    <linearGradient
       inkscape:collect="always"
       xlink:href="#linearGradient3014"
       id="linearGradient1872"
       gradientUnits="userSpaceOnUse"
       x1="9.5597601"
       y1="0.49501425"
       x2="5.2970576"
       y2="14.798989" />
    <linearGradient
       inkscape:collect="always"
       xlink:href="#linearGradient3014"
       id="linearGradient1874"
       gradientUnits="userSpaceOnUse"
       x1="9.5597601"
       y1="0.49501425"
       x2="5.2970576"
       y2="14.798989" />
  </defs>
  <g
     inkscape:label="Layer 1"
     inkscape:groupmode="layer"
     id="layer1">
    <g
       id="g6730"
       transform="matrix(0.855697,0,0,0.81731255,-0.14975611,0.15980463)"
       style="fill:url(#linearGradient1735);fill-opacity:1">
      <path
         id="path1800"
         style="color:#000000;fill:url(#linearGradient1872);fill-opacity:1;-inkscape-stroke:none"
         d="m 7.7089844,0.06640625 c -4.1063172,0 -7.43164065,3.42912395 -7.43164065,7.61523435 0,4.1861104 3.32532345,7.6132814 7.43164065,7.6132814 2.5169156,0 4.9302446,-1.293042 6.2744336,-3.253734 l 0.210826,-0.609926 -2.03145,-0.675809 -0.314953,0.07856 c -1.095306,1.474545 -2.113472,2.32819 -4.0546849,2.32819 -3.3073241,0 -5.6214397,-1.730647 -5.6214397,-5.1594409 0,-3.4287943 1.8932616,-5.9910021 5.2005857,-5.9910021 3.1198639,0 4.9935809,1.9143678 5.2744369,5.069648 l 0.196764,0.2994305 1.955621,0.6666788 0.149089,-0.23586 c 4.54e-4,-0.034555 0.002,0.090132 0.002,0.055471 0,-4.1861104 -3.134864,-7.80071975 -7.2411816,-7.80071975 z"
         sodipodi:nodetypes="sssccccsssccccsss" />
      <rect
         style="fill:url(#linearGradient1874);fill-opacity:1;stroke:none;stroke-width:1.92069;stroke-opacity:1"
         id="rect2085"
         width="8.4097395"
         height="2.3982801"
         x="5.6569571"
         y="3.3122561"
         ry="0.37859678"
         transform="matrix(0.9411908,0.33787554,-0.27787015,0.96061864,0,0)" />
    </g>
  </g>
</svg>
