<?xml version="1.0" encoding="UTF-8"?>
<svg xmlns="http://www.w3.org/2000/svg" xmlns:xlink="http://www.w3.org/1999/xlink" width="64px" height="64px" viewBox="0 0 64 64" version="1.1">
<defs>
<linearGradient id="linear0" gradientUnits="userSpaceOnUse" x1="42.650154" y1="2.357635" x2="42.650154" y2="30.646935" gradientTransform="matrix(0.67921,0,0,1.472298,0,0)">
<stop offset="0" style="stop-color:rgb(3.921569%,74.117649%,77.64706%);stop-opacity:1;"/>
<stop offset="1" style="stop-color:rgb(72.156864%,0%,100%);stop-opacity:1;"/>
</linearGradient>
<linearGradient id="linear1" gradientUnits="userSpaceOnUse" x1="54.597" y1="113.025002" x2="60.549" y2="113.025002" gradientTransform="matrix(0.211641,0,0,0.211641,-5.62957,-5.585316)">
<stop offset="0" style="stop-color:rgb(3.921569%,74.117649%,77.64706%);stop-opacity:1;"/>
<stop offset="1" style="stop-color:rgb(72.156864%,0%,100%);stop-opacity:1;"/>
</linearGradient>
<linearGradient id="linear2" gradientUnits="userSpaceOnUse" x1="313.359009" y1="211.820007" x2="320.496002" y2="211.820007" gradientTransform="matrix(0.211641,0,0,0.211641,-5.62957,-5.585316)">
<stop offset="0" style="stop-color:rgb(3.921569%,74.117649%,77.64706%);stop-opacity:1;"/>
<stop offset="1" style="stop-color:rgb(72.156864%,0%,100%);stop-opacity:1;"/>
</linearGradient>
<linearGradient id="linear3" gradientUnits="userSpaceOnUse" x1="5.083492" y1="12.399098" x2="8.122007" y2="12.399098" gradientTransform="matrix(1.333333,0,0,1.333333,0,0)">
<stop offset="0" style="stop-color:rgb(3.921569%,74.117649%,77.64706%);stop-opacity:1;"/>
<stop offset="1" style="stop-color:rgb(72.156864%,0%,100%);stop-opacity:1;"/>
</linearGradient>
<linearGradient id="linear4" gradientUnits="userSpaceOnUse" x1="45.260792" y1="27.635271" x2="47.000999" y2="27.635271" gradientTransform="matrix(1.333333,0,0,1.333333,0,0)">
<stop offset="0" style="stop-color:rgb(3.921569%,74.117649%,77.64706%);stop-opacity:1;"/>
<stop offset="1" style="stop-color:rgb(72.156864%,0%,100%);stop-opacity:1;"/>
</linearGradient>
<linearGradient id="linear5" gradientUnits="userSpaceOnUse" x1="25.547621" y1="2.682055" x2="25.547621" y2="45.212975" gradientTransform="matrix(1.333333,0,0,1.333333,0,0)">
<stop offset="0" style="stop-color:rgb(3.921569%,74.117649%,77.64706%);stop-opacity:1;"/>
<stop offset="1" style="stop-color:rgb(72.156864%,0%,100%);stop-opacity:1;"/>
</linearGradient>
<linearGradient id="linear6" gradientUnits="userSpaceOnUse" x1="8.868365" y1="26.525568" x2="38.818996" y2="34.550816" >
<stop offset="0" style="stop-color:rgb(72.156864%,0%,100%);stop-opacity:1;"/>
<stop offset="1" style="stop-color:rgb(3.921569%,74.117649%,77.64706%);stop-opacity:1;"/>
</linearGradient>
<linearGradient id="linear7" gradientUnits="userSpaceOnUse" x1="8.868365" y1="26.525568" x2="38.818996" y2="34.550816" >
<stop offset="0" style="stop-color:rgb(72.156864%,0%,100%);stop-opacity:1;"/>
<stop offset="1" style="stop-color:rgb(3.921569%,74.117649%,77.64706%);stop-opacity:1;"/>
</linearGradient>
</defs>
<g id="surface1">
<path style="fill:none;stroke-width:1.603;stroke-linecap:butt;stroke-linejoin:miter;stroke:url(#linear0);stroke-miterlimit:4;" d="M 19.825195 44.370117 C 24.93457 40.951172 30.27832 37.59082 34.250977 32.818359 C 35.62793 31.166016 37.262695 27.635742 35.563477 25.804688 C 33.193359 23.244141 29.53418 22.611328 26.387695 21.427734 C 23.748047 20.43457 20.522461 19.749023 18.94043 17.223633 C 17.560547 15.023438 19.382812 12.486328 20.862305 10.795898 C 23.132812 8.208984 26.006836 5.592773 28.772461 3.56543 " transform="matrix(1.333333,0,0,1.333333,0,0)"/>
<path style=" stroke:none;fill-rule:nonzero;fill:url(#linear1);" d="M 6.730469 16.726562 L 7.183594 18.007812 L 6.101562 19.945312 L 5.925781 18.792969 Z M 6.730469 16.726562 "/>
<path style=" stroke:none;fill-rule:nonzero;fill:url(#linear2);" d="M 61.496094 37.648438 L 62.199219 38.660156 L 61.289062 40.839844 L 60.691406 39.71875 Z M 61.496094 37.648438 "/>
<path style=" stroke:none;fill-rule:nonzero;fill:url(#linear3);" d="M 9.683594 14.148438 C 6.046875 15.167969 6.855469 17.636719 6.855469 17.636719 L 7.140625 19.03125 C 7.140625 19.03125 13.320312 13.132812 9.683594 14.148438 Z M 7.179688 16.449219 L 6.9375 16.679688 L 7.28125 15.769531 L 7.542969 15.519531 Z M 7.6875 16.085938 L 7.375 16.292969 L 7.722656 15.375 L 8.050781 15.152344 Z M 8.304688 15.769531 L 7.941406 15.941406 L 8.273438 15.027344 L 8.667969 14.839844 Z M 8.304688 15.769531 "/>
<path style=" stroke:none;fill-rule:nonzero;fill:url(#linear4);" d="M 60.425781 39.867188 L 61.582031 39.027344 C 61.582031 39.027344 63.839844 37.75 61.84375 34.546875 C 59.84375 31.34375 60.425781 39.867188 60.425781 39.867188 Z M 62.5 37.003906 L 62.523438 37.363281 L 62.160156 38.269531 L 62.140625 37.933594 Z M 62.371094 36.386719 L 62.464844 36.773438 L 62.101562 37.6875 L 62.011719 37.320312 Z M 62.125 35.738281 L 62.292969 36.148438 L 61.917969 37.046875 L 61.765625 36.671875 Z M 62.125 35.738281 "/>
<path style=" stroke:none;fill-rule:nonzero;fill:url(#linear5);" d="M 22.234375 59.507812 C 17.113281 57.523438 12.488281 54.089844 9.035156 49.316406 C 4.445312 42.96875 2.578125 35.207031 3.785156 27.46875 C 4.988281 19.726562 9.125 12.898438 15.429688 8.25 C 15.46875 8.222656 15.503906 8.199219 15.542969 8.175781 C 15.578125 8.144531 15.613281 8.117188 15.648438 8.089844 C 22.039062 3.464844 29.847656 1.609375 37.632812 2.855469 C 45.417969 4.105469 52.253906 8.3125 56.875 14.703125 C 61.5 21.089844 63.355469 28.898438 62.109375 36.683594 C 60.859375 44.472656 56.652344 51.304688 50.261719 55.929688 C 41.847656 62.019531 31.265625 63.011719 22.234375 59.507812 Z M 16.992188 10.152344 C 16.960938 10.179688 16.925781 10.207031 16.894531 10.234375 C 4.996094 19.007812 2.367188 35.894531 11.03125 47.871094 C 19.78125 59.957031 36.730469 62.675781 48.816406 53.933594 C 54.675781 49.695312 58.527344 43.433594 59.671875 36.292969 C 60.820312 29.160156 59.117188 22.003906 54.878906 16.148438 C 50.640625 10.292969 44.378906 6.4375 37.242188 5.292969 C 30.105469 4.148438 22.949219 5.847656 17.09375 10.085938 C 17.0625 10.109375 17.027344 10.132812 16.992188 10.152344 Z M 16.992188 10.152344 "/>
<path style="fill-rule:nonzero;fill:url(#linear6);stroke-width:0.158729;stroke-linecap:butt;stroke-linejoin:miter;stroke:url(#linear7);stroke-miterlimit:4;" d="M 3.791016 24.18457 L 6.155273 18.125977 C 7.201172 19.239258 8.636719 20.402344 10.356445 21.56543 L 7.992188 27.624023 C 6.272461 26.463867 4.836914 25.297852 3.791016 24.18457 M 9.949219 28.875 L 12.313477 22.813477 C 12.325195 22.822266 12.336914 22.828125 12.348633 22.836914 C 14.25 23.982422 16.391602 25.107422 18.670898 26.162109 C 18.685547 26.167969 18.700195 26.173828 18.714844 26.179688 L 16.350586 32.241211 C 16.335938 32.232422 16.321289 32.226562 16.306641 32.220703 C 14.027344 31.168945 11.885742 30.043945 9.984375 28.895508 C 9.972656 28.889648 9.960938 28.880859 9.949219 28.875 M 18.873047 33.345703 L 21.237305 27.287109 C 23.619141 28.286133 26.106445 29.188477 28.587891 29.947266 L 26.223633 36.005859 C 23.742188 35.24707 21.254883 34.344727 18.873047 33.345703 M 28.962891 36.779297 L 31.327148 30.720703 C 31.699219 30.817383 32.068359 30.911133 32.4375 30.999023 C 34.517578 31.5 36.407227 31.839844 38.074219 32.027344 L 35.709961 38.085938 C 34.042969 37.898438 32.15332 37.558594 30.073242 37.057617 C 29.704102 36.969727 29.334961 36.875977 28.962891 36.779297 M 37.699219 38.244141 L 40.063477 32.182617 C 41.794922 32.255859 43.201172 32.121094 44.232422 31.795898 L 41.868164 37.854492 C 40.836914 38.179688 39.430664 38.314453 37.699219 38.244141 M 42.864258 37.412109 L 45.228516 31.353516 C 45.665039 31.081055 45.966797 30.744141 46.12207 30.348633 C 45.333984 32.367188 44.545898 34.388672 43.757812 36.407227 C 43.602539 36.805664 43.300781 37.139648 42.864258 37.412109 M 3.483398 24.553711 C 7.842773 29.305664 19.391602 35.024414 29.879883 37.549805 C 37.646484 39.421875 42.732422 39.038086 43.564453 36.899414 C 44.460938 34.605469 45.357422 32.308594 46.253906 30.011719 C 45.418945 32.150391 40.335938 32.53418 32.566406 30.662109 C 22.081055 28.133789 10.529297 22.415039 6.172852 17.666016 L 3.483398 24.553711 M 2.765625 25.535156 L 3.038086 24.834961 C 3.149414 24.963867 3.263672 25.089844 3.386719 25.21875 L 3.114258 25.918945 C 2.991211 25.790039 2.876953 25.661133 2.765625 25.535156 M 3.339844 26.15332 L 3.615234 25.456055 C 3.741211 25.584961 3.873047 25.716797 4.010742 25.845703 L 3.738281 26.542969 C 3.600586 26.414062 3.46875 26.285156 3.339844 26.15332 M 3.993164 26.783203 L 4.265625 26.085938 C 4.40918 26.217773 4.555664 26.349609 4.708008 26.478516 L 4.435547 27.178711 C 4.283203 27.046875 4.136719 26.915039 3.993164 26.783203 M 4.722656 27.421875 L 4.995117 26.724609 C 5.15332 26.856445 5.314453 26.988281 5.481445 27.120117 L 5.208984 27.820312 C 5.041992 27.685547 4.880859 27.553711 4.722656 27.421875 M 5.519531 28.063477 L 5.791992 27.366211 C 5.964844 27.498047 6.140625 27.632812 6.322266 27.767578 L 6.049805 28.464844 C 5.868164 28.330078 5.692383 28.198242 5.519531 28.063477 M 6.386719 28.710938 L 6.65918 28.013672 C 6.84375 28.148438 7.03418 28.280273 7.227539 28.415039 L 6.955078 29.112305 C 6.761719 28.977539 6.574219 28.845703 6.386719 28.710938 M 7.31543 29.358398 L 7.587891 28.661133 C 7.787109 28.795898 7.986328 28.927734 8.194336 29.0625 L 7.921875 29.759766 C 7.713867 29.62793 7.511719 29.493164 7.31543 29.358398 M 8.302734 30.005859 L 8.575195 29.308594 C 8.786133 29.443359 9 29.575195 9.216797 29.709961 L 8.944336 30.407227 C 8.727539 30.275391 8.513672 30.140625 8.302734 30.005859 M 9.345703 30.65332 L 9.618164 29.953125 C 9.837891 30.087891 10.060547 30.219727 10.289062 30.351562 L 10.016602 31.048828 C 9.788086 30.916992 9.56543 30.785156 9.345703 30.65332 M 10.438477 31.291992 L 10.710938 30.594727 C 10.942383 30.726562 11.173828 30.858398 11.411133 30.987305 L 11.138672 31.6875 C 10.901367 31.555664 10.669922 31.423828 10.438477 31.291992 M 11.575195 31.927734 L 11.847656 31.227539 C 12.09082 31.359375 12.333984 31.488281 12.577148 31.617188 L 12.307617 32.317383 C 12.061523 32.188477 11.81543 32.056641 11.575195 31.927734 M 12.758789 32.551758 L 13.03125 31.854492 C 13.280273 31.983398 13.532227 32.109375 13.78418 32.235352 L 13.511719 32.935547 C 13.259766 32.80957 13.007812 32.680664 12.758789 32.551758 M 13.980469 33.166992 L 14.25293 32.469727 C 14.507812 32.595703 14.765625 32.71875 15.026367 32.844727 L 14.753906 33.541992 C 14.493164 33.418945 14.235352 33.292969 13.980469 33.166992 M 15.234375 33.770508 L 15.506836 33.070312 C 15.770508 33.193359 16.03418 33.316406 16.300781 33.436523 L 16.02832 34.136719 C 15.761719 34.013672 15.498047 33.893555 15.234375 33.770508 M 16.520508 34.356445 L 16.792969 33.65918 C 17.05957 33.779297 17.332031 33.896484 17.604492 34.013672 L 17.332031 34.713867 C 17.05957 34.59668 16.790039 34.476562 16.520508 34.356445 M 17.830078 34.927734 L 18.102539 34.227539 C 18.37793 34.344727 18.650391 34.458984 18.928711 34.573242 L 18.65625 35.270508 C 18.37793 35.15918 18.105469 35.041992 17.830078 34.927734 M 19.166016 35.478516 L 19.438477 34.78125 C 19.716797 34.892578 19.995117 35.003906 20.273438 35.112305 L 20.000977 35.8125 C 19.722656 35.701172 19.444336 35.589844 19.166016 35.478516 M 20.516602 36.008789 L 20.789062 35.311523 C 21.070312 35.419922 21.351562 35.525391 21.635742 35.62793 L 21.360352 36.328125 C 21.079102 36.222656 20.797852 36.117188 20.516602 36.008789 M 21.881836 36.518555 L 22.157227 35.818359 C 22.438477 35.920898 22.722656 36.023438 23.006836 36.123047 L 22.734375 36.820312 C 22.450195 36.720703 22.166016 36.621094 21.881836 36.518555 M 23.258789 37.001953 L 23.53125 36.301758 C 23.81543 36.398438 24.102539 36.495117 24.386719 36.588867 L 24.114258 37.286133 C 23.830078 37.192383 23.542969 37.098633 23.258789 37.001953 M 24.641602 37.456055 L 24.914062 36.758789 C 25.201172 36.849609 25.485352 36.94043 25.772461 37.025391 L 25.5 37.725586 C 25.212891 37.637695 24.928711 37.546875 24.641602 37.456055 M 26.024414 37.883789 L 26.296875 37.183594 C 26.583984 37.268555 26.871094 37.353516 27.155273 37.435547 L 26.882812 38.132812 C 26.598633 38.050781 26.311523 37.96875 26.024414 37.883789 M 27.407227 38.279297 L 27.679688 37.582031 C 27.963867 37.658203 28.250977 37.734375 28.535156 37.807617 L 28.262695 38.507812 C 27.978516 38.43457 27.691406 38.358398 27.407227 38.279297 M 28.78418 38.642578 L 29.056641 37.942383 C 29.261719 37.995117 29.463867 38.044922 29.668945 38.094727 C 29.748047 38.112305 29.827148 38.132812 29.90332 38.150391 L 29.630859 38.847656 C 29.554688 38.830078 29.475586 38.8125 29.396484 38.791992 C 29.191406 38.742188 28.989258 38.692383 28.78418 38.642578 M 30.143555 38.967773 L 30.416016 38.267578 C 30.691406 38.332031 30.963867 38.390625 31.230469 38.449219 L 30.960938 39.146484 C 30.691406 39.09082 30.418945 39.029297 30.143555 38.967773 M 31.450195 39.249023 L 31.722656 38.548828 C 31.986328 38.601562 32.24707 38.654297 32.504883 38.701172 L 32.232422 39.398438 C 31.974609 39.351562 31.713867 39.301758 31.450195 39.249023 M 32.698242 39.483398 L 32.970703 38.783203 C 33.222656 38.827148 33.47168 38.868164 33.714844 38.90625 L 33.442383 39.606445 C 33.199219 39.568359 32.950195 39.527344 32.698242 39.483398 M 33.887695 39.673828 L 34.160156 38.973633 C 34.400391 39.008789 34.634766 39.041016 34.866211 39.070312 L 34.59375 39.767578 C 34.362305 39.738281 34.125 39.708984 33.887695 39.673828 M 35.012695 39.817383 L 35.285156 39.120117 C 35.510742 39.146484 35.733398 39.166992 35.953125 39.1875 L 35.677734 39.887695 C 35.460938 39.867188 35.238281 39.84375 35.012695 39.817383 M 36.076172 39.919922 L 36.348633 39.222656 C 36.5625 39.237305 36.770508 39.251953 36.972656 39.263672 L 36.700195 39.960938 C 36.498047 39.952148 36.287109 39.9375 36.076172 39.919922 M 37.072266 39.978516 L 37.344727 39.28125 C 37.543945 39.287109 37.737305 39.292969 37.927734 39.295898 L 37.655273 39.993164 C 37.464844 39.993164 37.271484 39.987305 37.072266 39.978516 M 38.000977 39.996094 L 38.273438 39.295898 C 38.458008 39.295898 38.639648 39.292969 38.81543 39.287109 L 38.542969 39.984375 C 38.367188 39.990234 38.185547 39.993164 38.000977 39.996094 M 38.859375 39.969727 L 39.131836 39.269531 C 39.301758 39.260742 39.46875 39.249023 39.629883 39.234375 L 39.357422 39.931641 C 39.196289 39.946289 39.029297 39.958008 38.859375 39.969727 M 39.647461 39.902344 L 39.919922 39.202148 C 40.075195 39.18457 40.224609 39.164062 40.371094 39.140625 L 40.098633 39.84082 C 39.952148 39.861328 39.802734 39.884766 39.647461 39.902344 M 40.359375 39.793945 L 40.634766 39.09668 C 40.772461 39.067383 40.910156 39.041016 41.039062 39.008789 L 40.766602 39.706055 C 40.637695 39.738281 40.5 39.767578 40.359375 39.793945 M 41.000977 39.644531 L 41.273438 38.947266 C 41.396484 38.912109 41.516602 38.874023 41.630859 38.835938 L 41.358398 39.533203 C 41.244141 39.574219 41.124023 39.612305 41.000977 39.644531 M 41.560547 39.457031 L 41.833008 38.759766 C 41.941406 38.71582 42.043945 38.671875 42.143555 38.625 L 41.871094 39.322266 C 41.771484 39.369141 41.668945 39.416016 41.560547 39.457031 M 42.043945 39.231445 L 42.316406 38.53418 C 42.407227 38.481445 42.492188 38.428711 42.574219 38.373047 L 42.301758 39.073242 C 42.219727 39.128906 42.134766 39.181641 42.043945 39.231445 M 42.445312 38.967773 L 42.717773 38.267578 C 42.791016 38.208984 42.861328 38.147461 42.925781 38.085938 L 42.65332 38.783203 C 42.588867 38.847656 42.518555 38.90918 42.445312 38.967773 M 42.761719 38.663086 L 43.03418 37.96582 C 43.092773 37.898438 43.145508 37.831055 43.189453 37.760742 L 42.916992 38.458008 C 42.873047 38.52832 42.820312 38.598633 42.761719 38.666016 M 42.996094 38.326172 L 43.268555 37.625977 C 43.300781 37.567383 43.330078 37.505859 43.353516 37.441406 L 43.081055 38.141602 C 43.057617 38.203125 43.02832 38.264648 42.996094 38.326172 M 3.483398 24.553711 L 6.172852 17.666016 C 10.529297 22.415039 22.081055 28.133789 32.566406 30.662109 C 40.335938 32.53418 45.418945 32.150391 46.253906 30.011719 C 45.357422 32.308594 44.460938 34.605469 43.564453 36.899414 C 42.732422 39.038086 37.646484 39.421875 29.879883 37.549805 C 19.391602 35.024414 7.842773 29.305664 3.483398 24.553711 M 6.09375 17.006836 L 6.366211 16.306641 C 6.477539 16.435547 6.591797 16.561523 6.714844 16.69043 L 6.439453 17.390625 C 6.319336 17.261719 6.205078 17.132812 6.09375 17.006836 M 6.667969 17.625 L 6.94043 16.927734 C 7.069336 17.056641 7.201172 17.185547 7.335938 17.317383 L 7.063477 18.014648 C 6.928711 17.885742 6.796875 17.756836 6.667969 17.625 M 7.321289 18.254883 L 7.59375 17.557617 C 7.737305 17.686523 7.883789 17.818359 8.036133 17.950195 L 7.763672 18.650391 C 7.611328 18.518555 7.464844 18.386719 7.321289 18.254883 M 8.050781 18.893555 L 8.323242 18.193359 C 8.481445 18.328125 8.642578 18.459961 8.80957 18.591797 L 8.537109 19.291992 C 8.370117 19.157227 8.208984 19.025391 8.050781 18.893555 M 8.847656 19.535156 L 9.120117 18.837891 C 9.292969 18.969727 9.46875 19.104492 9.650391 19.239258 L 9.37793 19.936523 C 9.196289 19.801758 9.020508 19.669922 8.847656 19.535156 M 9.714844 20.182617 L 9.987305 19.485352 C 10.171875 19.617188 10.362305 19.751953 10.555664 19.886719 L 10.283203 20.583984 C 10.089844 20.449219 9.899414 20.317383 9.714844 20.182617 M 10.643555 20.830078 L 10.916016 20.132812 C 11.112305 20.264648 11.314453 20.399414 11.519531 20.53418 L 11.25 21.231445 C 11.041992 21.099609 10.839844 20.964844 10.643555 20.830078 M 11.630859 21.477539 L 11.90332 20.780273 C 12.114258 20.915039 12.325195 21.046875 12.544922 21.181641 L 12.269531 21.878906 C 12.052734 21.74707 11.841797 21.612305 11.630859 21.477539 M 12.670898 22.12207 L 12.943359 21.424805 C 13.166016 21.556641 13.388672 21.691406 13.617188 21.823242 L 13.344727 22.520508 C 13.116211 22.388672 12.893555 22.256836 12.670898 22.12207 M 13.766602 22.763672 L 14.039062 22.066406 C 14.270508 22.198242 14.501953 22.330078 14.739258 22.458984 L 14.466797 23.15918 C 14.229492 23.027344 13.995117 22.895508 13.766602 22.763672 M 14.90332 23.399414 L 15.175781 22.699219 C 15.416016 22.831055 15.662109 22.959961 15.905273 23.088867 L 15.632812 23.789062 C 15.386719 23.657227 15.143555 23.52832 14.90332 23.399414 M 16.086914 24.023438 L 16.359375 23.326172 C 16.608398 23.455078 16.857422 23.581055 17.112305 23.707031 L 16.839844 24.407227 C 16.584961 24.27832 16.335938 24.152344 16.086914 24.023438 M 17.581055 23.941406 C 17.835938 24.067383 18.09375 24.19043 18.354492 24.316406 L 18.082031 25.013672 C 17.821289 24.890625 17.563477 24.764648 17.308594 24.638672 M 18.5625 25.242188 L 18.834961 24.541992 C 19.098633 24.665039 19.362305 24.788086 19.628906 24.908203 L 19.356445 25.605469 C 19.089844 25.485352 18.823242 25.365234 18.5625 25.242188 M 19.848633 25.828125 L 20.121094 25.130859 C 20.387695 25.250977 20.660156 25.368164 20.932617 25.485352 L 20.657227 26.185547 C 20.387695 26.06543 20.115234 25.948242 19.848633 25.828125 M 21.158203 26.399414 L 21.430664 25.699219 C 21.706055 25.816406 21.978516 25.930664 22.256836 26.044922 L 21.984375 26.742188 C 21.706055 26.630859 21.430664 26.513672 21.158203 26.399414 M 22.494141 26.950195 L 22.766602 26.25293 C 23.044922 26.364258 23.323242 26.475586 23.601562 26.583984 L 23.329102 27.28125 C 23.050781 27.172852 22.769531 27.061523 22.494141 26.950195 M 23.844727 27.480469 L 24.117188 26.783203 C 24.398438 26.888672 24.679688 26.99707 24.960938 27.099609 L 24.688477 27.799805 C 24.407227 27.694336 24.125977 27.588867 23.844727 27.480469 M 25.209961 27.990234 L 25.482422 27.290039 C 25.766602 27.392578 26.050781 27.495117 26.334961 27.591797 L 26.0625 28.291992 C 25.77832 28.192383 25.494141 28.092773 25.209961 27.990234 M 26.586914 28.470703 L 26.859375 27.773438 C 27.143555 27.870117 27.430664 27.966797 27.714844 28.060547 L 27.442383 28.757812 C 27.158203 28.664062 26.871094 28.567383 26.586914 28.470703 M 27.969727 28.927734 L 28.242188 28.230469 C 28.526367 28.321289 28.813477 28.40918 29.100586 28.49707 L 28.828125 29.194336 C 28.541016 29.109375 28.253906 29.018555 27.969727 28.927734 M 29.352539 29.355469 L 29.625 28.655273 C 29.912109 28.740234 30.199219 28.825195 30.483398 28.904297 L 30.210938 29.604492 C 29.926758 29.522461 29.639648 29.44043 29.352539 29.355469 M 30.735352 29.750977 L 31.007812 29.050781 C 31.291992 29.129883 31.579102 29.206055 31.863281 29.279297 L 31.59082 29.979492 C 31.306641 29.90332 31.019531 29.827148 30.735352 29.750977 M 32.112305 30.114258 L 32.384766 29.414062 C 32.589844 29.466797 32.791992 29.516602 32.994141 29.566406 C 33.073242 29.583984 33.152344 29.601562 33.231445 29.62207 L 32.958984 30.319336 C 32.879883 30.301758 32.800781 30.28125 32.72168 30.263672 C 32.519531 30.213867 32.314453 30.164062 32.112305 30.114258 M 33.46875 30.439453 L 33.741211 29.739258 C 34.019531 29.803711 34.291992 29.862305 34.558594 29.917969 L 34.286133 30.618164 C 34.019531 30.5625 33.74707 30.500977 33.46875 30.439453 M 34.77832 30.717773 L 35.050781 30.020508 C 35.314453 30.073242 35.575195 30.123047 35.830078 30.172852 L 35.560547 30.870117 C 35.302734 30.823242 35.041992 30.773438 34.77832 30.717773 M 36.026367 30.955078 L 36.298828 30.254883 C 36.550781 30.298828 36.796875 30.339844 37.042969 30.37793 L 36.770508 31.078125 C 36.524414 31.040039 36.27832 30.999023 36.026367 30.955078 M 37.21582 31.145508 L 37.488281 30.445312 C 37.725586 30.480469 37.962891 30.512695 38.194336 30.541992 L 37.921875 31.239258 C 37.69043 31.209961 37.453125 31.177734 37.21582 31.145508 M 38.34082 31.289062 L 38.613281 30.591797 C 38.838867 30.618164 39.061523 30.638672 39.27832 30.65918 L 39.005859 31.359375 C 38.789062 31.338867 38.566406 31.31543 38.34082 31.289062 M 39.404297 31.391602 L 39.676758 30.694336 C 39.887695 30.708984 40.098633 30.723633 40.300781 30.735352 L 40.02832 31.432617 C 39.826172 31.420898 39.615234 31.40918 39.404297 31.391602 M 40.400391 31.450195 L 40.672852 30.75293 C 40.87207 30.758789 41.06543 30.764648 41.255859 30.767578 L 40.983398 31.464844 C 40.792969 31.464844 40.59668 31.458984 40.400391 31.450195 M 41.329102 31.464844 L 41.601562 30.767578 C 41.786133 30.767578 41.967773 30.764648 42.143555 30.755859 L 41.871094 31.456055 C 41.695312 31.461914 41.513672 31.464844 41.329102 31.464844 M 42.1875 31.441406 L 42.459961 30.741211 C 42.629883 30.732422 42.796875 30.720703 42.958008 30.706055 L 42.685547 31.40332 C 42.524414 31.417969 42.357422 31.429688 42.1875 31.441406 M 42.975586 31.374023 L 43.248047 30.673828 C 43.40332 30.65625 43.552734 30.635742 43.699219 30.612305 L 43.426758 31.30957 C 43.280273 31.333008 43.130859 31.353516 42.975586 31.374023 M 43.6875 31.265625 L 43.959961 30.56543 C 44.100586 30.539062 44.235352 30.509766 44.367188 30.480469 L 44.094727 31.177734 C 43.962891 31.209961 43.828125 31.239258 43.6875 31.265625 M 44.329102 31.116211 L 44.598633 30.418945 C 44.724609 30.383789 44.844727 30.345703 44.958984 30.307617 L 44.683594 31.004883 C 44.572266 31.045898 44.452148 31.081055 44.329102 31.116211 M 44.888672 30.928711 L 45.161133 30.231445 C 45.269531 30.1875 45.37207 30.143555 45.46875 30.09375 L 45.199219 30.793945 C 45.099609 30.84082 44.99707 30.887695 44.888672 30.928711 M 45.644531 30.005859 C 45.735352 29.953125 45.820312 29.900391 45.902344 29.844727 L 45.629883 30.544922 C 45.547852 30.597656 45.462891 30.65332 45.37207 30.703125 M 45.773438 30.439453 L 46.045898 29.739258 C 46.119141 29.680664 46.189453 29.619141 46.253906 29.557617 L 45.981445 30.254883 C 45.916992 30.319336 45.84668 30.380859 45.773438 30.439453 M 46.089844 30.134766 L 46.362305 29.4375 C 46.420898 29.370117 46.473633 29.302734 46.517578 29.232422 L 46.245117 29.929688 C 46.198242 30 46.148438 30.070312 46.089844 30.134766 M 46.608398 29.103516 C 46.637695 29.044922 46.658203 28.977539 46.681641 28.913086 L 46.40918 29.613281 M 29.197266 39.298828 C 36.963867 41.170898 42.046875 40.787109 42.881836 38.648438 C 44.223633 35.211914 45.56543 31.772461 46.907227 28.333008 C 46.072266 30.47168 40.989258 30.855469 33.222656 28.983398 C 22.344727 26.361328 10.271484 20.25 6.319336 15.401367 L 2.302734 25.725586 C 6.254883 30.574219 18.319336 36.679688 29.197266 39.298828 M 2.036133 20.255859 L 4.400391 14.197266 C 4.664062 13.520508 4.40332 15.761719 5.094727 16.790039 L 2.730469 22.848633 C 2.039062 21.820312 1.825195 20.953125 2.036133 20.255859 M 2.935547 23.917969 L 5.642578 16.998047 C 4.59668 15.670898 4.253906 14.563477 4.576172 13.734375 L 1.886719 20.62207 C 1.564453 21.451172 1.848633 22.628906 2.935547 23.917969 M 1.350586 22.022461 C 1.365234 21.975586 1.379883 21.931641 1.397461 21.887695 L 1.669922 21.19043 C 1.652344 21.234375 1.637695 21.27832 1.625977 21.325195 L 1.350586 22.022461 M 1.31543 22.171875 L 1.587891 21.474609 C 1.570312 21.556641 1.558594 21.641602 1.552734 21.732422 L 1.280273 22.429688 C 1.286133 22.341797 1.297852 22.256836 1.31543 22.171875 M 1.277344 22.59375 L 1.549805 21.893555 C 1.552734 21.984375 1.558594 22.078125 1.573242 22.171875 L 1.300781 22.87207 C 1.286133 22.775391 1.280273 22.68457 1.277344 22.59375 M 1.330078 23.047852 L 1.602539 22.350586 C 1.623047 22.447266 1.652344 22.546875 1.68457 22.649414 L 1.412109 23.34668 C 1.376953 23.24707 1.350586 23.147461 1.330078 23.047852 M 1.476562 23.537109 L 1.749023 22.839844 C 1.790039 22.945312 1.836914 23.050781 1.889648 23.15918 L 1.617188 23.859375 C 1.564453 23.748047 1.517578 23.642578 1.476562 23.537109 M 1.719727 24.061523 L 1.992188 23.364258 C 2.050781 23.475586 2.118164 23.589844 2.191406 23.704102 L 1.916016 24.404297 C 1.845703 24.287109 1.77832 24.172852 1.719727 24.061523 M 2.056641 24.618164 L 2.329102 23.920898 C 2.408203 24.038086 2.496094 24.158203 2.589844 24.28125 L 2.317383 24.981445 C 2.223633 24.858398 2.135742 24.738281 2.056641 24.618164 M 2.920898 23.894531 C 1.875 22.567383 1.558594 21.474609 1.883789 20.645508 L 4.570312 13.757812 C 4.248047 14.586914 4.561523 15.679688 5.607422 17.003906 L 2.920898 23.894531 M 4.678711 13.494141 C 4.693359 13.447266 4.708008 13.40332 4.725586 13.359375 L 4.998047 12.65918 C 4.980469 12.706055 4.96582 12.75 4.951172 12.793945 L 4.678711 13.494141 M 4.640625 13.643555 L 4.916016 12.946289 C 4.898438 13.02832 4.886719 13.113281 4.880859 13.201172 L 4.608398 13.901367 C 4.614258 13.813477 4.625977 13.728516 4.640625 13.643555 M 4.605469 14.06543 L 4.87793 13.365234 C 4.87793 13.456055 4.886719 13.549805 4.901367 13.643555 L 4.628906 14.34375 C 4.614258 14.24707 4.605469 14.15332 4.605469 14.06543 M 4.658203 14.519531 L 4.930664 13.822266 C 4.951172 13.918945 4.977539 14.018555 5.012695 14.121094 L 4.737305 14.818359 C 4.705078 14.71875 4.678711 14.616211 4.658203 14.519531 M 4.804688 15.008789 L 5.077148 14.311523 C 5.118164 14.416992 5.165039 14.522461 5.217773 14.630859 L 4.945312 15.331055 C 4.892578 15.219727 4.845703 15.114258 4.804688 15.008789 M 5.047852 15.533203 L 5.320312 14.835938 C 5.378906 14.947266 5.446289 15.061523 5.516602 15.175781 L 5.244141 15.875977 C 5.173828 15.758789 5.106445 15.644531 5.047852 15.533203 M 5.384766 16.089844 L 5.657227 15.392578 C 5.736328 15.509766 5.824219 15.629883 5.917969 15.75293 L 5.645508 16.453125 C 5.551758 16.330078 5.463867 16.207031 5.384766 16.089844 M 2.358398 25.792969 L 6.369141 15.459961 C 5.238281 14.074219 4.889648 12.9375 5.223633 12.079102 L 1.201172 22.397461 C 0.867188 23.25293 1.212891 24.389648 2.34375 25.775391 " transform="matrix(1.333333,0,0,1.333333,0,0)"/>
<path style=" stroke:none;fill-rule:nonzero;fill:rgb(72.549021%,0%,100%);fill-opacity:1;" d="M 22.359375 38.207031 C 21.183594 34.988281 18.269531 32.535156 18.269531 32.535156 C 18.269531 32.535156 16.046875 35.605469 15.351562 38.457031 L 15.375 38.40625 C 15.375 38.40625 19.09375 39.226562 22.363281 38.195312 Z M 22.359375 38.207031 "/>
</g>
</svg>
