<?xml version="1.0" encoding="UTF-8" standalone="no"?>
<!-- Generator: Gravit.io -->

<svg
   style="isolation:isolate"
   viewBox="0 0 48 48"
   width="48pt"
   height="48pt"
   version="1.1"
   id="svg9"
   sodipodi:docname="robot.svg"
   inkscape:version="1.2.2 (b0a8486541, 2022-12-01)"
   xmlns:inkscape="http://www.inkscape.org/namespaces/inkscape"
   xmlns:sodipodi="http://sodipodi.sourceforge.net/DTD/sodipodi-0.dtd"
   xmlns:xlink="http://www.w3.org/1999/xlink"
   xmlns="http://www.w3.org/2000/svg"
   xmlns:svg="http://www.w3.org/2000/svg">
  <defs
     id="defs13">
    <linearGradient
       inkscape:collect="always"
       xlink:href="#_lgradient_6"
       id="linearGradient531"
       gradientUnits="userSpaceOnUse"
       gradientTransform="matrix(36.942,0,0,46.7,-16.659923,-14.872366)"
       x1="1.0582596"
       y1="0.28967878"
       x2="1.0777988"
       y2="1.2506207" />
    <linearGradient
       inkscape:collect="always"
       xlink:href="#_lgradient_6"
       id="linearGradient546"
       gradientUnits="userSpaceOnUse"
       gradientTransform="matrix(36.942,0,0,46.7,26.249399,-21.277199)"
       x1="-0.072180063"
       y1="0.48497471"
       x2="-0.052640811"
       y2="1.4459167" />
    <linearGradient
       inkscape:collect="always"
       xlink:href="#_lgradient_6"
       id="linearGradient561"
       gradientUnits="userSpaceOnUse"
       gradientTransform="matrix(-0.36141628,36.940232,-46.697765,-0.45688215,77.140488,-0.43976091)"
       x1="0.063200846"
       y1="1.1464087"
       x2="1.2777203"
       y2="1.1215516" />
    <linearGradient
       id="linearGradient597"
       x1="0.49999583"
       y1="0.039094649"
       x2="0.53643936"
       y2="0.99332279"
       gradientTransform="matrix(36.942,0,0,46.7,5.529,0.65)"
       gradientUnits="userSpaceOnUse">
      <stop
         offset="0%"
         stop-opacity="1"
         style="stop-color:rgb(17,153,142)"
         id="stop2-6" />
      <stop
         offset="99.1304347826087%"
         stop-opacity="1"
         style="stop-color:rgb(56,239,125)"
         id="stop4-2" />
    </linearGradient>
    <linearGradient
       inkscape:collect="always"
       xlink:href="#_lgradient_6"
       id="linearGradient601"
       gradientUnits="userSpaceOnUse"
       gradientTransform="matrix(-0.40873221,36.940232,-52.811348,-0.45688215,46.226712,-0.93198204)"
       x1="-0.0062544341"
       y1="0.39691803"
       x2="1.2082651"
       y2="0.37206104" />
    <linearGradient
       inkscape:collect="always"
       xlink:href="#_lgradient_6"
       id="linearGradient604"
       gradientUnits="userSpaceOnUse"
       gradientTransform="matrix(36.942,0,0,46.7,5.4811691,0.52104267)"
       x1="0.49000472"
       y1="0.018202927"
       x2="0.50954396"
       y2="0.97914487" />
    <linearGradient
       inkscape:collect="always"
       xlink:href="#_lgradient_6"
       id="linearGradient617"
       gradientUnits="userSpaceOnUse"
       x1="23.630754"
       y1="1.5000767"
       x2="24.352573"
       y2="46.376068"
       gradientTransform="matrix(0.28006167,0,0,1,22.676487,-0.12895733)" />
    <linearGradient
       inkscape:collect="always"
       xlink:href="#_lgradient_6"
       id="linearGradient619"
       gradientUnits="userSpaceOnUse"
       x1="23.630754"
       y1="1.5000767"
       x2="24.352573"
       y2="46.376068"
       gradientTransform="translate(-0.02503551,-0.25240554)" />
    <linearGradient
       inkscape:collect="always"
       xlink:href="#_lgradient_6"
       id="linearGradient621"
       gradientUnits="userSpaceOnUse"
       x1="23.630754"
       y1="1.5000767"
       x2="24.352573"
       y2="46.376068"
       gradientTransform="translate(-0.04783089,-0.12895733)" />
  </defs>
  <sodipodi:namedview
     id="namedview11"
     pagecolor="#ffffff"
     bordercolor="#666666"
     borderopacity="1.0"
     inkscape:showpageshadow="2"
     inkscape:pageopacity="0.0"
     inkscape:pagecheckerboard="0"
     inkscape:deskcolor="#d1d1d1"
     inkscape:document-units="pt"
     showgrid="false"
     inkscape:zoom="25.09375"
     inkscape:cx="32"
     inkscape:cy="32"
     inkscape:window-width="3830"
     inkscape:window-height="2136"
     inkscape:window-x="0"
     inkscape:window-y="0"
     inkscape:window-maximized="0"
     inkscape:current-layer="svg9" />
  <linearGradient
     id="_lgradient_6"
     x1="0.49999583277241255"
     y1="0.03909465020576136"
     x2="0.5364393547473191"
     y2="0.99332278455627"
     gradientTransform="matrix(36.942,0,0,46.7,5.529,0.65)"
     gradientUnits="userSpaceOnUse">
    <stop
       offset="0%"
       stop-opacity="1"
       style="stop-color:rgb(17,153,142)"
       id="stop2" />
    <stop
       offset="99.1304347826087%"
       stop-opacity="1"
       style="stop-color:rgb(56,239,125)"
       id="stop4" />
  </linearGradient>
  <g
     id="g643">
    <path
       d="m 45.507286,17.72263 v 0 c -0.0058,0.588972 -0.549423,1.062675 -1.213391,1.056179 l -6.133707,-0.06001 c -0.664968,-0.0065 -1.199256,-0.490756 -1.193494,-1.079728 v 0 c 0.0058,-0.588972 0.549423,-1.062675 1.214391,-1.05617 l 6.133707,0.06001 c 0.663968,0.0065 1.198256,0.490746 1.192494,1.079719 z"
       style="fill:url(#linearGradient561);fill-opacity:1;fill-rule:evenodd"
       id="path329-35" />
    <path
       d="m 10.45215,17.230409 v 0 c -0.0066,0.588972 -0.6213527,1.062675 -1.3722461,1.056179 L 2.1431838,18.226578 C 1.3911595,18.220078 0.78692347,17.735822 0.79343982,17.14685 v 0 c 0.006559,-0.588972 0.62135238,-1.062675 1.37337678,-1.05617 l 6.9367201,0.06001 c 0.7508939,0.0065 1.3551293,0.490746 1.3486133,1.079719 z"
       style="isolation:isolate;fill:url(#linearGradient601);fill-opacity:1;fill-rule:evenodd;stroke-width:1.06345"
       id="path329-35-9" />
    <path
       d="m 22.350169,22.366043 c 0,-0.884 0.718,-1.602 1.602,-1.602 0.884,0 1.601,0.718 1.601,1.602 0,0.883 -0.717,1.601 -1.601,1.601 -0.884,0 -1.602,-0.718 -1.602,-1.601 z m -4.804,9.609 v 0 c 0.589,0 1.067,0.499 1.067,1.114 v 2.042 c 0,0.615 -0.478,1.114 -1.067,1.114 v 0 c -0.589,0 -1.068,-0.499 -1.068,-1.114 v -2.042 c 0,-0.615 0.479,-1.114 1.068,-1.114 z m 3.203,0 v 0 c 0.589,0 1.068,0.496 1.068,1.108 v 4.189 c 0,0.612 -0.479,1.109 -1.068,1.109 v 0 c -0.589,0 -1.068,-0.497 -1.068,-1.109 v -4.189 c 0,-0.612 0.479,-1.108 1.068,-1.108 z m 9.609,0 v 0 c -0.589,0 -1.068,0.499 -1.068,1.114 v 2.042 c 0,0.615 0.479,1.114 1.068,1.114 v 0 c 0.589,0 1.068,-0.499 1.068,-1.114 v -2.042 c 0,-0.615 -0.479,-1.114 -1.068,-1.114 z m -3.203,0 v 0 c -0.589,0 -1.068,0.552 -1.068,1.232 v 3.942 c 0,0.68 0.479,1.232 1.068,1.232 v 0 c 0.589,0 1.068,-0.552 1.068,-1.232 v -3.942 c 0,-0.68 -0.479,-1.232 -1.068,-1.232 z m -3.203,0 v 0 c 0.589,0 1.068,0.539 1.068,1.203 v 6.134 c 0,0.665 -0.479,1.204 -1.068,1.204 v 0 c -0.589,0 -1.068,-0.539 -1.068,-1.204 v -6.134 c 0,-0.664 0.479,-1.203 1.068,-1.203 z m -4.271,-9.609 c 0,-1.132 0.449,-2.221 1.249,-3.022 0.801,-0.801 1.89,-1.249 3.022,-1.249 1.132,0 2.221,0.448 3.021,1.249 0.801,0.801 1.25,1.89 1.25,3.022 0,1.131 -0.449,2.22 -1.25,3.021 -0.8,0.801 -1.889,1.249 -3.021,1.249 -1.132,0 -2.221,-0.448 -3.022,-1.249 -0.8,-0.801 -1.249,-1.89 -1.249,-3.021 z m -3.203,0 c 0,-4.125 3.349,-7.474 7.474,-7.474 4.125,0 7.474,3.349 7.474,7.474 0,4.124 -3.349,7.473 -7.474,7.473 -4.125,0 -7.474,-3.349 -7.474,-7.473 z m 20.916,15.267 c -0.577,1.025 -1.335,1.922 -2.242,2.669 -0.993,0.823 -2.104,1.506 -3.299,2.018 -1.292,0.566 -2.638,0.993 -4.026,1.26 -1.441,0.289 -2.914,0.438 -4.377,0.438 -1.42,0 -2.829,-0.139 -4.217,-0.416 -1.314,-0.257 -2.584,-0.662 -3.801,-1.218 -1.111,-0.501 -2.136,-1.174 -3.043,-1.985 -0.854,-0.758 -1.548,-1.666 -2.05,-2.691 -1.0999999,-2.263 -1.6659999,-4.751 -1.6549999,-7.271 0.011,-2.018 0.31,-4.025 0.886,-5.968 0.6519999,-2.232 1.5479999,-4.388 2.6689999,-6.438 1.292,-2.381 2.766,-4.655 4.421,-6.801 1.889,-2.4770003 3.929,-4.8260003 6.107,-7.0470003 0.277,-0.288 0.662,-0.459 1.067,-0.459 0.406,0 0.801,0.171 1.079,0.47 2.21,2.274 4.281,4.687 6.214,7.2070003 1.676,2.167 3.181,4.462 4.495,6.854 1.131,2.039 2.039,4.175 2.711,6.395 0.566,1.88 0.876,3.833 0.887,5.798 0.021,2.52 -0.609,4.986 -1.826,7.185 z m 2.797,1.57 c -0.769,1.366 -1.794,2.573 -3,3.566 -1.228,1.014 -2.594,1.858 -4.046,2.487 -1.506,0.662 -3.086,1.154 -4.698,1.474 -1.644,0.32 -3.321,0.491 -4.997,0.491 -1.623,0 -3.246,-0.16 -4.837,-0.48 -1.548,-0.299 -3.064,-0.791 -4.505,-1.442 -1.409,-0.64 -2.712,-1.484 -3.854,-2.509 -1.1529999,-1.035 -2.1039999,-2.274 -2.7869999,-3.662 -1.324,-2.712 -1.997,-5.691 -1.986,-8.712 0.021,-2.317 0.363,-4.623 1.014,-6.844 0.726,-2.456 1.709,-4.826 2.926,-7.068 1.3659999,-2.53 2.9359999,-4.954 4.6979999,-7.2280003 1.964,-2.573 4.089,-5.018 6.352,-7.324 0.876,-0.908 2.093,-1.43100003 3.363,-1.43100003 1.282,0 2.499,0.52300003 3.385,1.45200003 2.295,2.36 4.452,4.858 6.449,7.474 1.772,2.2950003 3.363,4.7300003 4.761,7.2600003 1.228,2.231 2.221,4.58 2.969,7.015 0.662,2.178 1.003,4.43 1.025,6.705 0.021,3.064 -0.748,6.085 -2.232,8.776 z"
       fill-rule="evenodd"
       fill="url(#_lgradient_6)"
       id="path7"
       sodipodi:nodetypes="ssssscccscssssssssccccsssssssscccsssssssscssssssssssssssssssscscscscsccccssssssccccsccccscccccccccsccccccccccscccccccccscccccc"
       style="fill:url(#linearGradient604);fill-opacity:1" />
    <path
       d="m 45.265525,46.403892 v 0 c 0,0 -0.770436,1.07637 -1.726408,1.07236 L 3.5242957,47.308443 c -0.957419,0.0024 -1.739013,-1.063622 -1.739013,-1.063622 v 0 c 0,0 0.7704344,-1.076379 1.727846,-1.072364 l 40.0148233,0.167809 c 0.955979,-0.0024 1.737573,1.063626 1.737573,1.063626 z"
       style="fill:url(#linearGradient617);fill-opacity:1;fill-rule:evenodd;stroke-width:1.19989"
       id="path329"
       sodipodi:nodetypes="ssscssscs" />
    <path
       d="m 44.657449,38.143247 v 0 c 0.589,0 1.068,0.539 1.068,1.203 v 6.134 c 0,0.665 -0.479,1.204 -1.068,1.204 v 0 c -0.589,0 -1.068,-0.539 -1.068,-1.204 v -6.134 c 0,-0.664 0.479,-1.203 1.068,-1.203 z"
       style="fill:url(#linearGradient619);fill-opacity:1;fill-rule:evenodd"
       id="path329-3" />
    <path
       d="m 2.5951226,38.157096 v 0 c 0.589,0 1.068,0.539 1.068,1.203 v 6.134 c 0,0.665 -0.479,1.204 -1.068,1.204 v 0 c -0.589,0 -1.068,-0.539 -1.068,-1.204 v -6.134 c 0,-0.664 0.479,-1.203 1.068,-1.203 z"
       style="fill:url(#linearGradient621);fill-opacity:1;fill-rule:evenodd"
       id="path329-6" />
    <path
       d="m 1.8110763,16.581634 v 0 c 0.589,0 1.068,0.539 1.068,1.203001 v 6.134 c 0,0.665 -0.479,1.204 -1.068,1.204 v 0 c -0.589,0 -1.06800002,-0.539 -1.06800002,-1.204 v -6.134 c 0,-0.664001 0.47900002,-1.203001 1.06800002,-1.203001 z"
       style="fill:url(#linearGradient531);fill-opacity:1;fill-rule:evenodd"
       id="path329-7" />
    <path
       d="m 44.720399,10.176801 v 0 c 0.589,0 1.068,0.539 1.068,1.203 v 6.134 c 0,0.665 -0.479,1.204 -1.068,1.204 v 0 c -0.589,0 -1.068,-0.539 -1.068,-1.204 v -6.134 c 0,-0.664 0.479,-1.203 1.068,-1.203 z"
       style="fill:url(#linearGradient546);fill-opacity:1;fill-rule:evenodd"
       id="path329-5" />
  </g>
</svg>
