<?xml version="1.0" encoding="UTF-8" standalone="no"?>
<svg
   width="128"
   height="128"
   viewBox="0 0 128 128"
   fill="none"
   version="1.1"
   id="svg11"
   sodipodi:docname="yad.svg"
   inkscape:version="1.2.2 (b0a8486541, 2022-12-01)"
   xmlns:inkscape="http://www.inkscape.org/namespaces/inkscape"
   xmlns:sodipodi="http://sodipodi.sourceforge.net/DTD/sodipodi-0.dtd"
   xmlns:xlink="http://www.w3.org/1999/xlink"
   xmlns="http://www.w3.org/2000/svg"
   xmlns:svg="http://www.w3.org/2000/svg">
  <sodipodi:namedview
     id="namedview13"
     pagecolor="#ffffff"
     bordercolor="#666666"
     borderopacity="1.0"
     inkscape:showpageshadow="2"
     inkscape:pageopacity="0.0"
     inkscape:pagecheckerboard="0"
     inkscape:deskcolor="#d1d1d1"
     showgrid="false"
     inkscape:zoom="8.0234374"
     inkscape:cx="27.918209"
     inkscape:cy="59.575463"
     inkscape:window-width="2550"
     inkscape:window-height="1416"
     inkscape:window-x="0"
     inkscape:window-y="0"
     inkscape:window-maximized="0"
     inkscape:current-layer="svg11" />
  <defs
     id="defs9">
    <linearGradient
       id="linearGradient9942"
       x1="31.9995"
       y1="52"
       x2="31.9995"
       y2="12"
       gradientUnits="userSpaceOnUse"
       gradientTransform="matrix(0.71989697,0,0,0.71593787,54.323652,68.630662)"
       spreadMethod="pad">
      <stop
         stop-color="#5570FF"
         id="stop9938"
         offset="0"
         style="stop-color:#b309f6;stop-opacity:1;" />
      <stop
         offset="1"
         stop-color="#4DD3FF"
         id="stop9940"
         style="stop-color:#07bdc5;stop-opacity:1;" />
    </linearGradient>
    <linearGradient
       id="linearGradient9872"
       x1="31.9995"
       y1="52"
       x2="31.9995"
       y2="12"
       gradientUnits="userSpaceOnUse"
       gradientTransform="matrix(0.71989697,0,0,0.71593787,54.323652,68.630662)"
       spreadMethod="pad">
      <stop
         stop-color="#5570FF"
         id="stop9868"
         offset="0"
         style="stop-color:#b700ff;stop-opacity:1;" />
      <stop
         offset="1"
         stop-color="#4DD3FF"
         id="stop9870"
         style="stop-color:#4cf6ff;stop-opacity:1;" />
    </linearGradient>
    <linearGradient
       id="linearGradient1242"
       x1="31.9995"
       y1="52"
       x2="31.9995"
       y2="12"
       gradientUnits="userSpaceOnUse"
       gradientTransform="matrix(0.71989697,0,0,0.71593787,54.323652,68.630662)"
       spreadMethod="pad">
      <stop
         stop-color="#5570FF"
         id="stop1238"
         offset="0"
         style="stop-color:#df0af5;stop-opacity:1;" />
      <stop
         offset="1"
         stop-color="#4DD3FF"
         id="stop1240"
         style="stop-color:#00c2cc;stop-opacity:1;" />
    </linearGradient>
    <linearGradient
       id="linearGradient1234"
       x1="31.9995"
       y1="52"
       x2="31.9995"
       y2="12"
       gradientUnits="userSpaceOnUse"
       gradientTransform="matrix(0.71989697,0,0,0.71593787,54.323652,68.630662)"
       spreadMethod="pad">
      <stop
         stop-color="#5570FF"
         id="stop1230"
         offset="0"
         style="stop-color:#73ff55;stop-opacity:1;" />
      <stop
         offset="1"
         stop-color="#4DD3FF"
         id="stop1232" />
    </linearGradient>
    <linearGradient
       id="linearGradient1228"
       x1="31.9995"
       y1="52"
       x2="31.9995"
       y2="12"
       gradientUnits="userSpaceOnUse"
       gradientTransform="matrix(0.71989697,0,0,0.71593787,54.323652,68.630662)"
       spreadMethod="pad">
      <stop
         stop-color="#5570FF"
         id="stop1224" />
      <stop
         offset="1"
         stop-color="#4DD3FF"
         id="stop1226"
         style="stop-color:#4dff56;stop-opacity:1;" />
    </linearGradient>
    <linearGradient
       id="linearGradient1222"
       x1="31.9995"
       y1="52"
       x2="31.9995"
       y2="12"
       gradientUnits="userSpaceOnUse"
       gradientTransform="matrix(0.71989697,0,0,0.71593787,54.323652,68.630662)">
      <stop
         stop-color="#5570FF"
         id="stop1218" />
      <stop
         offset="1"
         stop-color="#4DD3FF"
         id="stop1220"
         style="stop-color:#4dff56;stop-opacity:1;" />
    </linearGradient>
    <linearGradient
       id="paint0_linear"
       x1="64"
       y1="133.42"
       x2="64"
       y2="0.134754"
       gradientUnits="userSpaceOnUse"
       gradientTransform="rotate(-179.88282,64,63.900648)">
      <stop
         stop-color="#5558FF"
         id="stop4"
         offset="0"
         style="stop-color:#07bcc5;stop-opacity:1;" />
      <stop
         offset="1"
         stop-color="#00C0FF"
         id="stop6"
         style="stop-color:#b500ff;stop-opacity:1;" />
    </linearGradient>
    <linearGradient
       id="paint1_linear"
       x1="31.9995"
       y1="52"
       x2="31.9995"
       y2="12"
       gradientUnits="userSpaceOnUse"
       gradientTransform="matrix(0.71989697,0,0,0.71593787,54.323652,68.630662)"
       spreadMethod="pad">
      <stop
         stop-color="#5570FF"
         id="stop153" />
      <stop
         offset="1"
         stop-color="#4DD3FF"
         id="stop155" />
    </linearGradient>
    <linearGradient
       inkscape:collect="always"
       xlink:href="#linearGradient9872"
       id="linearGradient1236"
       gradientUnits="userSpaceOnUse"
       gradientTransform="matrix(0.71989697,0,0,0.71593787,38.010209,56.169823)"
       x1="26.978392"
       y1="46.335384"
       x2="34.295658"
       y2="14.144495"
       spreadMethod="pad" />
    <linearGradient
       inkscape:collect="always"
       xlink:href="#linearGradient9942"
       id="linearGradient1277"
       gradientUnits="userSpaceOnUse"
       gradientTransform="matrix(0.44271345,0,0,0.42261985,68.418287,78.65842)"
       x1="26.978392"
       y1="46.335384"
       x2="34.295658"
       y2="14.144495"
       spreadMethod="pad" />
    <linearGradient
       inkscape:collect="always"
       xlink:href="#linearGradient1242"
       id="linearGradient1236-6"
       gradientUnits="userSpaceOnUse"
       gradientTransform="matrix(0.30084242,0,0,0.31783113,68.737978,99.47023)"
       x1="26.978392"
       y1="46.335384"
       x2="34.295658"
       y2="14.144495"
       spreadMethod="pad" />
  </defs>
  <g
     id="g14304">
    <path
       fill-rule="evenodd"
       clip-rule="evenodd"
       d="m 62.6967,65.298532 c 0.326689,-0.370283 0.691029,-0.548265 1.189485,-0.536953 0.166081,0.0038 0.348862,0.02993 0.548346,0.07553 l -0.0029,0.0028 c 0.26593,0.06071 0.562816,0.159368 0.902679,0.293606 1.020166,0.402071 1.174728,0.786888 1.065735,2.673527 -0.09495,1.64272 0.213666,2.303387 1.397536,2.986678 1.007424,0.5817 1.827819,0.563157 3.360264,-0.07832 0.555544,-0.232393 1.173648,-0.381881 1.377882,-0.327183 0.440865,0.11813 1.740135,2.158481 1.734952,2.723857 -0.0024,0.253299 -0.418188,0.742499 -1.155723,1.370305 -1.438354,1.224326 -1.744454,1.829937 -1.552169,3.053833 0.23123,1.471968 0.666192,1.990522 2.257956,2.695859 1.672897,0.74129 1.84632,1.053 1.436915,2.55884 -0.409838,1.507693 -0.796494,1.729133 -2.755694,1.602413 -1.297614,-0.0839 -1.711627,-0.0248 -2.252413,0.32998 -1.412078,0.92649 -1.827747,2.51559 -1.068544,4.09974 0.797574,1.66441 0.636677,2.17674 -0.975748,3.01467 -1.072286,0.55722 -1.558865,0.51462 -2.170777,-0.18177 -0.835225,-0.95034 -1.045939,-1.1682 -1.588741,-1.62203 -0.654674,-0.54726 -1.445913,-0.62945 -2.584214,-0.26848 -1.120952,0.35546 -1.297398,0.53495 -1.791176,1.79543 -0.540066,1.37847 -1.236567,1.94721 -2.21865,1.82049 -0.376578,-0.0483 -0.843071,-0.17498 -1.03766,-0.27965 -0.194876,-0.10331 -0.521853,-0.27392 -0.72544,-0.37751 -0.447632,-0.22839 -0.573542,-0.89113 -0.41898,-2.18411 0.06371,-0.53309 0.06479,-1.22777 0,-1.54371 -0.137716,-0.67076 -1.297542,-1.74775 -2.111746,-1.96596 -0.540138,-0.1447 -2.334049,0.14633 -3.447514,0.55936 -0.37989,0.14097 -0.62667,0.11462 -0.92226,-0.10073 -0.516166,-0.3758 -1.328786,-1.79551 -1.352615,-2.36303 -0.0185,-0.44302 0.576998,-1.24308 1.195101,-1.6052 0.567135,-0.332343 1.268171,-1.209653 1.414454,-1.773023 0.202075,-0.77594 -0.0879,-2.256353 -0.539923,-2.768606 -0.214097,-0.24256 -0.89008,-0.65179 -1.504368,-0.914467 -0.614361,-0.262606 -1.289048,-0.671479 -1.496018,-0.906091 -0.33864,-0.383672 -0.33864,-0.560795 -0.01685,-1.76178 0.413293,-1.542417 0.913405,-2.004555 1.892465,-1.742235 1.029525,0.275851 2.31814,0.185285 2.93286,-0.206978 0.749989,-0.478533 1.496666,-1.80445 1.484716,-2.642741 -0.0048,-0.338997 -0.210786,-1.106983 -0.452743,-1.705865 -0.585564,-1.448915 -0.427907,-1.924227 0.868915,-2.659495 1.364925,-0.773785 1.842145,-0.788892 2.398553,-0.08112 1.222529,1.555017 1.578662,1.872679 2.333906,2.075003 1.539284,0.412452 3.282586,-0.481182 3.655565,-1.870889 0.101649,-0.378731 0.415093,-0.947186 0.694557,-1.263988 z m 4.109387,13.781303 c 0,3.163226 -2.578455,5.727509 -5.759175,5.727509 -3.180721,0 -5.759176,-2.564283 -5.759176,-5.727509 0,-3.163228 2.578455,-5.727503 5.759176,-5.727503 3.18072,0 5.759175,2.564275 5.759175,5.727503 z"
       fill="url(#paint1_linear)"
       id="path146"
       style="fill:url(#linearGradient1236);fill-opacity:1;stroke-width:0.717915" />
    <path
       d="m 3.6194387,127.67794 120.4997513,0.24644 c 2.07099,0.004 3.7731,-1.67137 3.75766,-3.74232 l -0.002,-0.23777 c -0.0154,-2.07094 0.0303,2.19063 -0.0982,0.12362 L 113.31612,103.5051 78.43387,54.925853 l 0.181909,-44.272169 5.401812,0.04999 0.08335,-7.2344875 C 84.116872,2.0862783 84.408357,0.92870901 83.190393,0.27421671 81.975227,-0.37926987 74.64328,0.07636906 73.256958,0.07063283 L 43.579716,-0.05216376 C 42.534997,0.64070107 42.37071,0.42155281 42.344942,1.6752939 L 42.159519,10.6969 48.387008,10.78036 46.633,56.326613 C 39.500677,66.042085 0.7275807,124.23671 0.05028209,123.7496 c -0.38500497,-0.0559 0.70563518,2.18706 1.54664081,3.05955 0.8410056,0.87248 1.3775075,0.8134 2.0225158,0.86883 z M 55.867767,60.79556 c 0.640415,-0.691191 1.519835,-3.695175 1.521762,-4.637473 l 1.652972,-44.85214 10.81075,-0.402979 -0.423265,45.663684 c -0.0019,0.942298 0.899416,5.14268 1.536998,5.836486 l 3.711523,5.486925 c -0.32922,0.438953 -26.687031,3.350485 -26.687031,3.350485 z m -9.766297,14.03835 33.019381,-2.585181 39.133139,52.357521 1.38557,-7.23126 -114.6598079,0.007 11.2126749,0.62284 z"
       fill="url(#paint0_linear)"
       id="path2"
       sodipodi:nodetypes="cssssccccscscsccccscccccscccccccccccc"
       style="fill:url(#paint0_linear)" />
    <path
       fill-rule="evenodd"
       clip-rule="evenodd"
       d="m 83.599685,84.047116 c 0.200903,-0.218579 0.424962,-0.323642 0.731493,-0.316965 0.102136,0.0023 0.21454,0.01767 0.337222,0.04459 l -0.0019,0.0017 c 0.163538,0.03584 0.346114,0.09407 0.555113,0.173317 0.627373,0.237344 0.722424,0.464502 0.655397,1.578191 -0.05841,0.969697 0.131395,1.35969 0.859435,1.76305 0.619538,0.34337 1.124051,0.33243 2.066453,-0.0462 0.34164,-0.13718 0.721759,-0.22543 0.847352,-0.19314 0.271121,0.0697 1.070128,1.27415 1.066946,1.6079 -0.0019,0.14952 -0.257175,0.4383 -0.710733,0.80889 -0.884548,0.72273 -1.072787,1.080217 -0.954533,1.802677 0.142198,0.86891 0.409688,1.17501 1.388566,1.59138 1.028776,0.43758 1.135433,0.62158 0.883658,1.5105 -0.252036,0.88998 -0.489818,1.0207 -1.694665,0.94589 -0.797987,-0.0495 -1.052597,-0.0146 -1.385158,0.19479 -0.868383,0.5469 -1.124005,1.48496 -0.657119,2.42008 0.490483,0.98252 0.391529,1.28495 -0.60006,1.77957 -0.659421,0.328944 -0.958651,0.303784 -1.334951,-0.1073 -0.513639,-0.56098 -0.643219,-0.68959 -0.977025,-0.95748 -0.40261,-0.32305 -0.88919,-0.37157 -1.589215,-0.15849 -0.689345,0.20983 -0.797855,0.31578 -1.101513,1.05985 -0.332122,0.813714 -0.760448,1.149444 -1.364398,1.074634 -0.231583,-0.0285 -0.518461,-0.10325 -0.638127,-0.16508 -0.119843,-0.061 -0.320923,-0.16169 -0.446122,-0.22284 -0.27528,-0.13481 -0.35271,-0.526034 -0.257659,-1.289284 0.03918,-0.31468 0.03984,-0.72475 0,-0.91126 -0.08469,-0.39595 -0.797947,-1.0317 -1.298656,-1.16051 -0.332168,-0.0854 -1.435365,0.0864 -2.12011,0.33019 -0.233621,0.0832 -0.385382,0.0677 -0.567161,-0.0595 -0.317425,-0.22183 -0.81716,-1.05989 -0.831814,-1.39489 -0.01138,-0.26152 0.354835,-0.7338 0.734949,-0.94756 0.348769,-0.19618 0.779884,-0.71406 0.869843,-1.04661 0.12427,-0.45804 -0.05405,-1.33193 -0.332036,-1.63432 -0.131662,-0.14318 -0.54737,-0.38474 -0.925137,-0.53981 -0.377812,-0.15501 -0.792723,-0.39637 -0.920003,-0.53486 -0.208252,-0.22649 -0.208252,-0.33105 -0.01036,-1.039977 0.254162,-0.9105 0.561715,-1.1833 1.163805,-1.02846 0.633124,0.16284 1.425581,0.10933 1.803615,-0.12218 0.461218,-0.28248 0.920401,-1.06516 0.913051,-1.56 -0.003,-0.20012 -0.129626,-0.653471 -0.278422,-1.006989 -0.360103,-0.855299 -0.263149,-1.135874 0.534355,-1.569905 0.839385,-0.456767 1.13286,-0.465685 1.475033,-0.04788 0.751816,0.917925 0.970826,1.105443 1.435277,1.224879 0.94661,0.243473 2.018683,-0.284043 2.248059,-1.104391 0.06253,-0.223565 0.255266,-0.559125 0.427125,-0.746134 z m 2.527143,8.13514 c 0,1.86725 -1.585668,3.38095 -3.541711,3.38095 -1.956039,0 -3.541706,-1.5137 -3.541706,-3.38095 0,-1.86726 1.585667,-3.380967 3.541706,-3.380967 1.956043,0 3.541711,1.513707 3.541711,3.380967 z"
       fill="url(#paint1_linear)"
       id="path146-5"
       style="fill:url(#linearGradient1277);fill-opacity:1;stroke-width:0.43255" />
    <path
       fill-rule="evenodd"
       clip-rule="evenodd"
       d="m 79.054377,103.5228 c 0.136522,-0.16439 0.288779,-0.2434 0.497082,-0.23838 0.06941,0.002 0.145788,0.0133 0.229152,0.0335 l -0.0012,0.001 c 0.111132,0.0269 0.235198,0.0708 0.377226,0.13034 0.426324,0.17849 0.490914,0.34933 0.445366,1.18688 -0.03968,0.72926 0.08929,1.02256 0.584025,1.32589 0.421,0.25824 0.76384,0.25001 1.404243,-0.0348 0.23216,-0.10317 0.490463,-0.16953 0.575812,-0.14525 0.184236,0.0524 0.727197,0.95824 0.725031,1.20922 -0.001,0.11245 -0.174759,0.32963 -0.482972,0.60833 -0.601084,0.54353 -0.729002,0.81238 -0.648646,1.35571 0.09663,0.65346 0.278398,0.88367 0.943591,1.19679 0.6991,0.32909 0.771571,0.46747 0.600481,1.13597 -0.171267,0.66932 -0.332851,0.76762 -1.151594,0.71137 -0.542269,-0.0373 -0.715282,-0.011 -0.941275,0.14649 -0.590103,0.4113 -0.763809,1.11676 -0.446541,1.82002 0.333303,0.73889 0.266064,0.96634 -0.407762,1.33832 -0.448104,0.24737 -0.651444,0.22846 -0.90716,-0.0807 -0.349038,-0.42189 -0.437094,-0.51861 -0.663929,-0.72008 -0.273586,-0.24295 -0.604242,-0.27944 -1.079934,-0.11919 -0.468443,0.1578 -0.542178,0.23749 -0.748526,0.79706 -0.225693,0.61195 -0.516758,0.86444 -0.927167,0.80818 -0.15737,-0.0214 -0.352316,-0.0777 -0.433634,-0.12414 -0.08144,-0.0459 -0.218081,-0.12161 -0.303159,-0.1676 -0.187064,-0.10139 -0.239681,-0.3956 -0.17509,-0.9696 0.02663,-0.23666 0.02708,-0.54505 0,-0.68531 -0.05755,-0.29778 -0.542238,-0.77589 -0.882492,-0.87276 -0.225722,-0.0642 -0.975391,0.065 -1.440704,0.24832 -0.158754,0.0626 -0.261883,0.0509 -0.385409,-0.0447 -0.215703,-0.16683 -0.555295,-0.79709 -0.565253,-1.04904 -0.0078,-0.19667 0.241126,-0.55185 0.499429,-0.7126 0.237003,-0.14754 0.529964,-0.53701 0.591095,-0.78711 0.08445,-0.34447 -0.03673,-1.00168 -0.225632,-1.22909 -0.08947,-0.10768 -0.371961,-0.28935 -0.628669,-0.40596 -0.25674,-0.11659 -0.538689,-0.2981 -0.625182,-0.40225 -0.141516,-0.17033 -0.141516,-0.24896 -0.0071,-0.78212 0.172714,-0.68474 0.381709,-0.8899 0.790854,-0.77344 0.430235,0.12246 0.968742,0.0822 1.225632,-0.0919 0.313418,-0.21244 0.625452,-0.80106 0.620458,-1.17321 -0.002,-0.15049 -0.08809,-0.49143 -0.1892,-0.75729 -0.244706,-0.64323 -0.178821,-0.85424 0.363116,-1.18065 0.570398,-0.34351 0.769826,-0.35022 1.002347,-0.036 0.510891,0.69033 0.659718,0.83135 0.975332,0.92117 0.643261,0.1831 1.37178,-0.21362 1.527647,-0.83056 0.04248,-0.16813 0.173466,-0.42049 0.290253,-0.56113 z m 1.717298,6.11802 c 0,1.40428 -1.077527,2.54265 -2.406738,2.54265 -1.329213,0 -2.40674,-1.13837 -2.40674,-2.54265 0,-1.40427 1.077527,-2.54265 2.40674,-2.54265 1.329211,0 2.406738,1.13838 2.406738,2.54265 z"
       fill="url(#paint1_linear)"
       id="path146-1"
       style="fill:url(#linearGradient1236-6);fill-opacity:1;stroke-width:0.309221" />
  </g>
</svg>
